{
    "niv": {
        "branch": "master",
        "description": "Easy dependency management for Nix projects",
        "homepage": "https://github.com/nmattia/niv",
        "owner": "nmattia",
        "repo": "niv",
        "rev": "dd13098d01eaa6be68237e7e38f96782b0480755",
        "sha256": "1cfjdbsn0219fjzam1k7nqzkz8fb1ypab50rhyj026qbklqq2kvq",
        "type": "tarball",
        "url": "https://github.com/nmattia/niv/archive/dd13098d01eaa6be68237e7e38f96782b0480755.tar.gz",
        "url_template": "https://github.com/<owner>/<repo>/archive/<rev>.tar.gz"
    },
    "nixpkgs": {
        "branch": "nixos-21.11",
        "description": "A read-only mirror of NixOS/nixpkgs tracking the released channels. Send issues and PRs to",
        "homepage": "https://github.com/NixOS/nixpkgs",
        "owner": "NixOS",
        "repo": "nixpkgs",
        "rev": "9ab7d12287ced0e1b4c03b61c781901f178d9d77",
        "sha256": "0bbd2pgcyavqn5wgq0xp8p67lha0kv9iqnh49i9w5fb5g29q7i30",
        "type": "tarball",
        "url": "https://github.com/NixOS/nixpkgs/archive/9ab7d12287ced0e1b4c03b61c781901f178d9d77.tar.gz",
        "url_template": "https://github.com/<owner>/<repo>/archive/<rev>.tar.gz"
    }
}
